%!PS-Adobe-2.0
%%Creator: inkscape 0.41
%%Pages: 1
%%Orientation: Portrait
%%BoundingBox: 0 0 145 144
%%HiResBoundingBox: 0.0000000 0.0000000 145.00000 144.00000
%%EndComments
%%Page: 1 1
0 144 translate
0.80000000 -0.80000000 scale
gsave [1.00000000 0.0000000 0.0000000 1.00000000 0.0000000 1.7681216e-06] concat
1.0000000 1.0000000 1.0000000 setrgbcolor
newpath
20.305000 7.4880000 moveto
160.48900 7.4880000 lineto
167.54600 7.4880000 173.30500 13.248000 173.30500 20.304000 curveto
173.30500 159.55200 lineto
173.30500 166.60900 167.54500 172.44100 160.48900 172.44100 curveto
20.305000 172.44100 lineto
13.248000 172.44100 7.4890000 166.60900 7.4890000 159.55200 curveto
7.4890000 20.304000 lineto
7.4880000 13.248000 13.248000 7.4880000 20.305000 7.4880000 curveto
closepath
eofill
0.0000000 0.40784314 0.77647060 setrgbcolor
newpath
20.305000 7.4880000 moveto
160.48900 7.4880000 lineto
167.54600 7.4880000 173.30500 13.248000 173.30500 20.304000 curveto
173.30500 159.55200 lineto
173.30500 166.60900 167.54500 172.44100 160.48900 172.44100 curveto
20.305000 172.44100 lineto
13.248000 172.44100 7.4890000 166.60900 7.4890000 159.55200 curveto
7.4890000 20.304000 lineto
7.4880000 13.248000 13.248000 7.4880000 20.305000 7.4880000 curveto
closepath
18.721000 0.0000000 moveto
162.07300 0.0000000 lineto
172.37000 0.0000000 180.79400 8.4240000 180.79400 18.720000 curveto
180.79400 161.13600 lineto
180.79400 171.43300 172.37000 179.85700 162.07300 179.85700 curveto
18.721000 179.85700 lineto
8.4240000 179.85600 0.0000000 171.43300 0.0000000 161.13600 curveto
0.0000000 18.720000 lineto
0.0000000 8.4240000 8.4240000 0.0000000 18.721000 0.0000000 curveto
closepath
eofill
0.0000000 0.40784314 0.77647060 setrgbcolor
newpath
20.592000 10.296000 moveto
160.20100 10.296000 lineto
165.81600 10.296000 170.42400 14.904000 170.42400 20.592000 curveto
170.42400 159.33700 lineto
170.42400 164.95200 165.81700 169.56000 160.20100 169.56000 curveto
20.592000 169.56000 lineto
14.977000 169.56000 10.369000 164.95300 10.369000 159.33700 curveto
10.369000 20.592000 lineto
10.369000 14.904000 14.977000 10.296000 20.592000 10.296000 curveto
closepath
eofill
1.0000000 1.0000000 1.0000000 setrgbcolor
newpath
76.020451 20.674017 moveto
100.12054 18.919896 lineto
100.12054 33.410457 100.12054 47.824752 100.12054 62.239047 curveto
109.73007 47.748486 120.40733 33.334191 132.45631 19.377493 curveto
158.31053 25.936378 lineto
146.71914 38.825351 134.89683 53.163380 125.44089 67.501409 curveto
134.51656 82.754631 144.50742 96.712388 157.85399 112.57468 curveto
132.91603 119.97249 lineto
118.95933 104.33794 110.57006 89.313516 100.12054 73.145101 curveto
100.12054 116.08292 lineto
76.020451 119.13462 lineto
76.020451 20.674017 lineto
76.020451 20.674017 lineto
closepath
eofill
1.0000000 1.0000000 1.0000000 setrgbcolor
newpath
100.35040 139.80274 moveto
114.45963 136.82730 110.87512 132.55746 122.39025 139.26888 curveto
129.86538 144.53018 lineto
131.23923 145.21658 132.53470 146.43789 133.83122 145.14031 curveto
136.65307 142.47100 139.39865 139.72647 142.22049 137.05716 curveto
143.44075 135.75958 142.22049 134.30946 141.61037 133.31906 curveto
141.53304 133.31906 lineto
136.11921 125.61724 lineto
132.53364 126.91483 lineto
131.61951 127.52496 130.39819 127.21883 129.33152 125.77084 curveto
121.39985 115.39759 lineto
114.07830 125.54098 102.25705 132.09986 88.834217 132.09986 curveto
66.718104 132.09986 48.719302 114.10318 48.719302 91.984948 curveto
48.719302 76.274130 57.794970 62.622496 70.987947 56.063610 curveto
70.987947 46.835411 lineto
70.530351 47.064209 70.073813 47.216742 69.690364 47.369274 curveto
64.505328 49.504725 64.199204 50.496184 55.733666 45.615153 curveto
48.260647 40.276526 lineto
46.886797 39.666397 45.590273 38.369873 44.294809 39.666397 curveto
41.472963 42.411977 38.727383 45.157557 35.905537 47.903137 curveto
34.685279 49.123394 35.981803 50.648717 36.515666 51.640176 curveto
42.233505 59.724384 lineto
46.429201 65.673140 lineto
47.039329 66.512068 47.267069 66.588334 46.963063 67.198463 curveto
46.582792 67.808591 46.276668 68.342454 45.895338 68.952583 curveto
40.327912 78.562113 44.217483 79.324774 32.319970 82.451685 curveto
23.244303 83.977007 lineto
21.872572 84.434604 20.042186 84.434604 19.964860 86.341256 curveto
19.964860 90.230828 19.888594 94.120400 19.888594 98.009971 curveto
19.812328 99.764092 21.796306 99.917683 22.940298 100.22169 curveto
32.627153 101.97581 lineto
39.872434 103.27339 lineto
40.863893 103.42698 41.090573 103.27339 41.320430 104.03499 curveto
44.295868 116.92397 48.184380 113.87438 41.700702 125.08550 curveto
36.439399 132.63479 lineto
35.753004 133.93237 34.531687 135.22889 35.829271 136.52436 curveto
38.574850 139.34620 41.243105 142.09390 43.988685 144.91575 curveto
45.208943 146.13389 46.734265 144.83948 47.726784 144.30562 curveto
55.809932 138.58566 lineto
61.834955 134.46623 lineto
62.674941 133.77984 62.751207 133.55210 63.361336 133.93237 curveto
75.410323 141.48377 75.867919 136.06782 79.376160 148.80532 curveto
81.054015 157.87887 lineto
81.511611 159.25272 81.587877 161.00684 83.418264 161.08310 curveto
87.307836 161.08310 91.273674 161.08310 95.163245 161.08310 curveto
96.917366 161.08310 97.070957 159.09913 97.298696 157.95513 curveto
98.976551 148.19413 lineto
100.12054 141.02300 lineto
100.19681 140.33660 100.19681 140.02942 100.35040 139.80274 curveto
closepath
114.91723 133.70145 moveto
114.84096 133.77560 114.76364 133.77560 114.68737 133.77560 curveto
114.76364 133.77560 114.76364 133.70145 114.84096 133.70145 curveto
114.91723 133.70145 lineto
closepath
101.11094 139.49662 moveto
100.88320 139.57288 100.57708 139.65021 100.34934 139.80274 curveto
100.50081 139.64915 100.73067 139.57288 101.11094 139.49662 curveto
closepath
eofill
1.0000000 1.0000000 1.0000000 setrgbcolor
newpath
89.139282 129.20175 moveto
101.79840 129.20175 112.93325 122.79434 119.64467 113.03122 curveto
119.18707 112.26962 lineto
111.33166 120.96289 102.56212 126.60658 89.063016 126.91271 curveto
72.284471 127.21671 55.277129 112.19335 55.199803 92.515634 curveto
55.048330 79.855459 60.919762 71.313655 70.910622 65.212366 curveto
70.910622 59.873738 lineto
59.699504 66.203825 52.073952 78.330137 52.073952 92.135362 curveto
52.073952 112.49735 68.698905 129.20175 89.139282 129.20175 curveto
closepath
eofill
grestore
showpage
