%!PS-Adobe-2.0 EPSF-2.0
%%Title: processus.fig
%%Creator: fig2dev Version 3.2.3 Patchlevel 
%%CreationDate: Fri May 14 21:54:18 2004
%%For: ben@moon.localdomain ()
%%BoundingBox: 0 0 394 439
%%Magnification: 1.0000
%%EndComments
/$F2psDict 200 dict def
$F2psDict begin
$F2psDict /mtrx matrix put
/col-1 {0 setgray} bind def
/col0 {0.000 0.000 0.000 srgb} bind def
/col1 {0.000 0.000 1.000 srgb} bind def
/col2 {0.000 1.000 0.000 srgb} bind def
/col3 {0.000 1.000 1.000 srgb} bind def
/col4 {1.000 0.000 0.000 srgb} bind def
/col5 {1.000 0.000 1.000 srgb} bind def
/col6 {1.000 1.000 0.000 srgb} bind def
/col7 {1.000 1.000 1.000 srgb} bind def
/col8 {0.000 0.000 0.560 srgb} bind def
/col9 {0.000 0.000 0.690 srgb} bind def
/col10 {0.000 0.000 0.820 srgb} bind def
/col11 {0.530 0.810 1.000 srgb} bind def
/col12 {0.000 0.560 0.000 srgb} bind def
/col13 {0.000 0.690 0.000 srgb} bind def
/col14 {0.000 0.820 0.000 srgb} bind def
/col15 {0.000 0.560 0.560 srgb} bind def
/col16 {0.000 0.690 0.690 srgb} bind def
/col17 {0.000 0.820 0.820 srgb} bind def
/col18 {0.560 0.000 0.000 srgb} bind def
/col19 {0.690 0.000 0.000 srgb} bind def
/col20 {0.820 0.000 0.000 srgb} bind def
/col21 {0.560 0.000 0.560 srgb} bind def
/col22 {0.690 0.000 0.690 srgb} bind def
/col23 {0.820 0.000 0.820 srgb} bind def
/col24 {0.500 0.190 0.000 srgb} bind def
/col25 {0.630 0.250 0.000 srgb} bind def
/col26 {0.750 0.380 0.000 srgb} bind def
/col27 {1.000 0.500 0.500 srgb} bind def
/col28 {1.000 0.630 0.630 srgb} bind def
/col29 {1.000 0.750 0.750 srgb} bind def
/col30 {1.000 0.880 0.880 srgb} bind def
/col31 {1.000 0.840 0.000 srgb} bind def

end
save
newpath 0 439 moveto 0 0 lineto 394 0 lineto 394 439 lineto closepath clip newpath
-161.0 523.0 translate
1 -1 scale

/cp {closepath} bind def
/ef {eofill} bind def
/gr {grestore} bind def
/gs {gsave} bind def
/sa {save} bind def
/rs {restore} bind def
/l {lineto} bind def
/m {moveto} bind def
/rm {rmoveto} bind def
/n {newpath} bind def
/s {stroke} bind def
/sh {show} bind def
/slc {setlinecap} bind def
/slj {setlinejoin} bind def
/slw {setlinewidth} bind def
/srgb {setrgbcolor} bind def
/rot {rotate} bind def
/sc {scale} bind def
/sd {setdash} bind def
/ff {findfont} bind def
/sf {setfont} bind def
/scf {scalefont} bind def
/sw {stringwidth} bind def
/tr {translate} bind def
/tnt {dup dup currentrgbcolor
  4 -2 roll dup 1 exch sub 3 -1 roll mul add
  4 -2 roll dup 1 exch sub 3 -1 roll mul add
  4 -2 roll dup 1 exch sub 3 -1 roll mul add srgb}
  bind def
/shd {dup dup currentrgbcolor 4 -2 roll mul 4 -2 roll mul
  4 -2 roll mul srgb} bind def
/reencdict 12 dict def /ReEncode { reencdict begin
/newcodesandnames exch def /newfontname exch def /basefontname exch def
/basefontdict basefontname findfont def /newfont basefontdict maxlength dict def
basefontdict { exch dup /FID ne { dup /Encoding eq
{ exch dup length array copy newfont 3 1 roll put }
{ exch newfont 3 1 roll put } ifelse } { pop pop } ifelse } forall
newfont /FontName newfontname put newcodesandnames aload pop
128 1 255 { newfont /Encoding get exch /.notdef put } for
newcodesandnames length 2 idiv { newfont /Encoding get 3 1 roll put } repeat
newfontname newfont definefont pop end } def
/isovec [
8#055 /minus 8#200 /grave 8#201 /acute 8#202 /circumflex 8#203 /tilde
8#204 /macron 8#205 /breve 8#206 /dotaccent 8#207 /dieresis
8#210 /ring 8#211 /cedilla 8#212 /hungarumlaut 8#213 /ogonek 8#214 /caron
8#220 /dotlessi 8#230 /oe 8#231 /OE
8#240 /space 8#241 /exclamdown 8#242 /cent 8#243 /sterling
8#244 /currency 8#245 /yen 8#246 /brokenbar 8#247 /section 8#250 /dieresis
8#251 /copyright 8#252 /ordfeminine 8#253 /guillemotleft 8#254 /logicalnot
8#255 /hypen 8#256 /registered 8#257 /macron 8#260 /degree 8#261 /plusminus
8#262 /twosuperior 8#263 /threesuperior 8#264 /acute 8#265 /mu 8#266 /paragraph
8#267 /periodcentered 8#270 /cedilla 8#271 /onesuperior 8#272 /ordmasculine
8#273 /guillemotright 8#274 /onequarter 8#275 /onehalf
8#276 /threequarters 8#277 /questiondown 8#300 /Agrave 8#301 /Aacute
8#302 /Acircumflex 8#303 /Atilde 8#304 /Adieresis 8#305 /Aring
8#306 /AE 8#307 /Ccedilla 8#310 /Egrave 8#311 /Eacute
8#312 /Ecircumflex 8#313 /Edieresis 8#314 /Igrave 8#315 /Iacute
8#316 /Icircumflex 8#317 /Idieresis 8#320 /Eth 8#321 /Ntilde 8#322 /Ograve
8#323 /Oacute 8#324 /Ocircumflex 8#325 /Otilde 8#326 /Odieresis 8#327 /multiply
8#330 /Oslash 8#331 /Ugrave 8#332 /Uacute 8#333 /Ucircumflex
8#334 /Udieresis 8#335 /Yacute 8#336 /Thorn 8#337 /germandbls 8#340 /agrave
8#341 /aacute 8#342 /acircumflex 8#343 /atilde 8#344 /adieresis 8#345 /aring
8#346 /ae 8#347 /ccedilla 8#350 /egrave 8#351 /eacute
8#352 /ecircumflex 8#353 /edieresis 8#354 /igrave 8#355 /iacute
8#356 /icircumflex 8#357 /idieresis 8#360 /eth 8#361 /ntilde 8#362 /ograve
8#363 /oacute 8#364 /ocircumflex 8#365 /otilde 8#366 /odieresis 8#367 /divide
8#370 /oslash 8#371 /ugrave 8#372 /uacute 8#373 /ucircumflex
8#374 /udieresis 8#375 /yacute 8#376 /thorn 8#377 /ydieresis] def
/Times-Roman /Times-Roman-iso isovec ReEncode
/Times-Italic /Times-Italic-iso isovec ReEncode
/Times-BoldItalic /Times-BoldItalic-iso isovec ReEncode
/$F2psBegin {$F2psDict begin /$F2psEnteredState save def} def
/$F2psEnd {$F2psEnteredState restore end} def

$F2psBegin
%%Page: 1 1
10 setmiterlimit
 0.06000 0.06000 sc
/Times-Italic-iso ff 180.00 scf sf
5175 2250 m
gs 1 -1 sc (sgml2xml.pl) col0 sh gr
/Times-Roman-iso ff 180.00 scf sf
6300 6450 m
gs 1 -1 sc (dvips) col0 sh gr
/Times-Roman-iso ff 180.00 scf sf
6300 7500 m
gs 1 -1 sc (ps2pdf) col0 sh gr
% Polyline
7.500 slw
 [15 45] 45 sd
n 3030 4650 m 2925 4650 2925 6195 105 arcto 4 {pop} repeat
  2925 6300 4395 6300 105 arcto 4 {pop} repeat
  4500 6300 4500 4755 105 arcto 4 {pop} repeat
  4500 4650 3030 4650 105 arcto 4 {pop} repeat
 cp gs col0 s gr  [] 0 sd
% Polyline
 [15 45] 45 sd
n 5655 4650 m 5550 4650 5550 8295 105 arcto 4 {pop} repeat
  5550 8400 7020 8400 105 arcto 4 {pop} repeat
  7125 8400 7125 4755 105 arcto 4 {pop} repeat
  7125 4650 5655 4650 105 arcto 4 {pop} repeat
 cp gs col0 s gr  [] 0 sd
% Polyline
 [15 45] 45 sd
n 2805 2025 m 2700 2025 2700 8595 105 arcto 4 {pop} repeat
  2700 8700 7245 8700 105 arcto 4 {pop} repeat
  7350 8700 7350 2130 105 arcto 4 {pop} repeat
  7350 2025 2805 2025 105 arcto 4 {pop} repeat
 cp gs col0 s gr  [] 0 sd
/Times-Italic-iso ff 180.00 scf sf
5175 4350 m
gs 1 -1 sc (texclean) col0 sh gr
% Polyline
n 4650 1425 m 5400 1425 l 5400 1950 l 4650 1950 l
 cp gs col0 s gr 
/Times-Roman-iso ff 180.00 scf sf
4800 1725 m
gs 1 -1 sc (.sgml) col0 sh gr
% Polyline
n 4650 2475 m 5400 2475 l 5400 3000 l 4650 3000 l
 cp gs col0 s gr 
% Polyline
gs  clippath
4995 2490 m 5055 2490 l 5055 2339 l 5025 2459 l 4995 2339 l cp
eoclip
n 5025 1950 m
 5025 2475 l gs col0 s gr gr

% arrowhead
n 4995 2339 m 5025 2459 l 5055 2339 l 4995 2339 l  cp gs 0.00 setgray ef gr  col0 s
/Times-Roman-iso ff 180.00 scf sf
4875 2775 m
gs 1 -1 sc (.xml) col0 sh gr
% Polyline
n 4650 3525 m 5400 3525 l 5400 4050 l 4650 4050 l
 cp gs col0 s gr 
/Times-Roman-iso ff 180.00 scf sf
4875 3825 m
gs 1 -1 sc (.rtex) col0 sh gr
% Polyline
n 4650 4575 m 5400 4575 l 5400 5100 l 4650 5100 l
 cp gs col0 s gr 
/Times-Roman-iso ff 180.00 scf sf
4875 4875 m
gs 1 -1 sc (.tex) col0 sh gr
% Polyline
n 5775 5625 m 6525 5625 l 6525 6150 l 5775 6150 l
 cp gs col7 1.00 shd ef gr gs col0 s gr 
% Polyline
n 5775 6675 m 6525 6675 l 6525 7200 l 5775 7200 l
 cp gs col0 s gr 
% Polyline
n 5775 7725 m 6525 7725 l 6525 8250 l 5775 8250 l
 cp gs col0 s gr 
% Polyline
gs  clippath
6120 6690 m 6180 6690 l 6180 6539 l 6150 6659 l 6120 6539 l cp
eoclip
n 6150 6150 m
 6150 6675 l gs col0 s gr gr

% arrowhead
n 6120 6539 m 6150 6659 l 6180 6539 l 6120 6539 l  cp gs 0.00 setgray ef gr  col0 s
% Polyline
gs  clippath
6120 7740 m 6180 7740 l 6180 7589 l 6150 7709 l 6120 7589 l cp
eoclip
n 6150 7200 m
 6150 7725 l gs col0 s gr gr

% arrowhead
n 6120 7589 m 6150 7709 l 6180 7589 l 6120 7589 l  cp gs 0.00 setgray ef gr  col0 s
/Times-Roman-iso ff 180.00 scf sf
6000 6975 m
gs 1 -1 sc (.ps) col0 sh gr
/Times-Roman-iso ff 180.00 scf sf
6000 8025 m
gs 1 -1 sc (.pdf) col0 sh gr
% Polyline
n 3525 5625 m 4275 5625 l 4275 6150 l 3525 6150 l
 cp gs col7 1.00 shd ef gr gs col0 s gr 
% Polyline
n 7575 2925 m 9225 2925 l 9225 3525 l 7575 3525 l
 cp gs col0 s gr 
/Times-Roman-iso ff 180.00 scf sf
7800 3300 m
gs 1 -1 sc (XSL Stylesheets) col0 sh gr
% Polyline
n 7575 4875 m 9225 4875 l 9225 5475 l 7575 5475 l
 cp gs col0 s gr 
/Times-Roman-iso ff 180.00 scf sf
7800 5250 m
gs 1 -1 sc (LaTeX Package) col0 sh gr
% Polyline
gs  clippath
4995 3540 m 5055 3540 l 5055 3389 l 5025 3509 l 4995 3389 l cp
eoclip
n 5025 3000 m
 5025 3525 l gs col0 s gr gr

% arrowhead
n 4995 3389 m 5025 3509 l 5055 3389 l 4995 3389 l  cp gs 0.00 setgray ef gr  col0 s
% Polyline
gs  clippath
4995 4590 m 5055 4590 l 5055 4439 l 5025 4559 l 4995 4439 l cp
eoclip
n 5025 4050 m
 5025 4575 l gs col0 s gr gr

% arrowhead
n 4995 4439 m 5025 4559 l 5055 4439 l 4995 4439 l  cp gs 0.00 setgray ef gr  col0 s
% Polyline
n 4650 4575 m 5400 4575 l 5400 5100 l 4650 5100 l
 cp gs col7 1.00 shd ef gr gs col0 s gr 
% Polyline
gs  clippath
3720 5640 m 3780 5640 l 3780 5489 l 3750 5609 l 3720 5489 l cp
eoclip
n 4650 4800 m 3750 4800 l
 3750 5625 l gs col0 s gr gr

% arrowhead
n 3720 5489 m 3750 5609 l 3780 5489 l 3720 5489 l  cp gs 0.00 setgray ef gr  col0 s
% Polyline
gs  clippath
4095 5640 m 4155 5640 l 4155 5489 l 4125 5609 l 4095 5489 l cp
eoclip
n 4650 5025 m 4125 5025 l
 4125 5625 l gs col0 s gr gr

% arrowhead
n 4095 5489 m 4125 5609 l 4155 5489 l 4095 5489 l  cp gs 0.00 setgray ef gr  col0 s
% Polyline
gs  clippath
5895 5640 m 5955 5640 l 5955 5489 l 5925 5609 l 5895 5489 l cp
eoclip
n 5400 5025 m 5925 5025 l
 5925 5625 l gs col0 s gr gr

% arrowhead
n 5895 5489 m 5925 5609 l 5955 5489 l 5895 5489 l  cp gs 0.00 setgray ef gr  col0 s
% Polyline
gs  clippath
6270 5640 m 6330 5640 l 6330 5489 l 6300 5609 l 6270 5489 l cp
eoclip
n 5400 4800 m 6300 4800 l
 6300 5625 l gs col0 s gr gr

% arrowhead
n 6270 5489 m 6300 5609 l 6330 5489 l 6270 5489 l  cp gs 0.00 setgray ef gr  col0 s
% Polyline
gs  clippath
5910 3195 m 5910 3255 l 6061 3255 l 5941 3225 l 6061 3195 l cp
eoclip
n 7575 3225 m
 5925 3225 l gs col0 s gr gr

% arrowhead
n 6061 3195 m 5941 3225 l 6061 3255 l 6061 3195 l  cp gs 0.00 setgray ef gr  col0 s
% Polyline
gs  clippath
6885 5145 m 6885 5205 l 7036 5205 l 6916 5175 l 7036 5145 l cp
eoclip
n 7575 5175 m
 6900 5175 l gs col0 s gr gr

% arrowhead
n 7036 5145 m 6916 5175 l 7036 5205 l 7036 5145 l  cp gs 0.00 setgray ef gr  col0 s
/Times-Roman-iso ff 180.00 scf sf
5175 3300 m
gs 1 -1 sc (xsltproc) col0 sh gr
/Times-Roman-iso ff 180.00 scf sf
4725 5400 m
gs 1 -1 sc (makeindex) col0 sh gr
/Times-Roman-iso ff 180.00 scf sf
4875 5700 m
gs 1 -1 sc (bibtex) col0 sh gr
/Times-Roman-iso ff 180.00 scf sf
3000 5250 m
gs 1 -1 sc (pdflatex) col0 sh gr
/Times-BoldItalic-iso ff 180.00 scf sf
2925 4575 m
gs 1 -1 sc (runpdflatex) col0 sh gr
/Times-BoldItalic-iso ff 180.00 scf sf
6450 4575 m
gs 1 -1 sc (runlatex) col0 sh gr
/Times-Roman-iso ff 180.00 scf sf
6000 8625 m
gs 1 -1 sc (-b dvips) col0 sh gr
/Times-Roman-iso ff 180.00 scf sf
3300 6525 m
gs 1 -1 sc (-b pdftex) col0 sh gr
/Times-Roman-iso ff 180.00 scf sf
6450 5250 m
gs 1 -1 sc (latex) col0 sh gr
/Times-BoldItalic-iso ff 180.00 scf sf
6600 1950 m
gs 1 -1 sc (dblatex) col0 sh gr
/Times-Roman-iso ff 180.00 scf sf
6000 5925 m
gs 1 -1 sc (.dvi) col0 sh gr
/Times-Roman-iso ff 180.00 scf sf
3750 5925 m
gs 1 -1 sc (.pdf) col0 sh gr
/Times-Roman-iso ff 180.00 scf sf
4875 4875 m
gs 1 -1 sc (.tex) col0 sh gr
$F2psEnd
rs
